date,# events
2013-01-01,0
2013-01-02,0
2013-01-03,0
2013-01-04,0
2013-01-05,0
2013-01-06,0
2013-01-07,0
2013-01-08,0
2013-01-09,0
2013-01-10,0
2013-01-11,0
2013-01-12,0
2013-01-13,0
2013-01-14,0
2013-01-15,0
2013-01-16,0
2013-01-17,9
2013-01-18,17
2013-01-19,0
2013-01-20,0
2013-01-21,5
2013-01-22,15
2013-01-23,21
2013-01-24,5
2013-01-25,18
2013-01-26,0
2013-01-27,0
2013-01-28,3
2013-01-29,0
2013-01-30,3
2013-01-31,6
2013-02-01,6
2013-02-02,0
2013-02-03,0
2013-02-04,3
2013-02-05,5
2013-02-06,0
2013-02-07,1
2013-02-08,0
2013-02-09,0
2013-02-10,0
2013-02-11,0
2013-02-12,0
2013-02-13,0
2013-02-14,0
2013-02-15,0
2013-02-16,0
2013-02-17,0
2013-02-18,0
2013-02-19,0
2013-02-20,0
2013-02-21,0
2013-02-22,1
2013-02-23,0
2013-02-24,0
2013-02-25,1
2013-02-26,0
2013-02-27,1
2013-02-28,0
2013-03-01,0
2013-03-02,0
2013-03-03,0
2013-03-04,1
2013-03-05,0
2013-03-06,4
2013-03-07,1
2013-03-08,4
2013-03-09,0
2013-03-10,0
2013-03-11,3
2013-03-12,4
2013-03-13,0
2013-03-14,0
2013-03-15,0
2013-03-16,0
2013-03-17,0
2013-03-18,0
2013-03-19,0
2013-03-20,0
2013-03-21,0
2013-03-22,1
2013-03-23,0
2013-03-24,0
2013-03-25,0
2013-03-26,0
2013-03-27,0
2013-03-28,0
2013-03-29,0
2013-03-30,0
2013-03-31,0
2013-04-01,0
2013-04-02,0
2013-04-03,0
2013-04-04,0
2013-04-05,0
2013-04-06,0
2013-04-07,0
2013-04-08,0
2013-04-09,0
2013-04-10,0
2013-04-11,0
2013-04-12,0
2013-04-13,0
2013-04-14,0
2013-04-15,0
2013-04-16,0
2013-04-17,1
2013-04-18,2
2013-04-19,0
2013-04-20,0
2013-04-21,0
2013-04-22,0
2013-04-23,2
2013-04-24,2
2013-04-25,0
2013-04-26,0
2013-04-27,0
2013-04-28,0
2013-04-29,0
2013-04-30,0
2013-05-01,0
2013-05-02,0
2013-05-03,0
2013-05-04,0
2013-05-05,0
2013-05-06,0
2013-05-07,0
2013-05-08,0
2013-05-09,0
2013-05-10,0
2013-05-11,0
2013-05-12,0
2013-05-13,0
2013-05-14,0
2013-05-15,0
2013-05-16,1
2013-05-17,0
2013-05-18,0
2013-05-19,0
2013-05-20,0
2013-05-21,0
2013-05-22,1
2013-05-23,0
2013-05-24,0
2013-05-25,0
2013-05-26,0
2013-05-27,0
2013-05-28,0
2013-05-29,1
2013-05-30,4
2013-05-31,11
2013-06-01,0
2013-06-02,0
2013-06-03,6
2013-06-04,1
2013-06-05,9
2013-06-06,2
2013-06-07,7
2013-06-08,0
2013-06-09,0
2013-06-10,0
2013-06-11,0
2013-06-12,2
2013-06-13,0
2013-06-14,3
2013-06-15,0
2013-06-16,0
2013-06-17,0
2013-06-18,3
2013-06-19,0
2013-06-20,0
2013-06-21,1
2013-06-22,0
2013-06-23,0
2013-06-24,0
2013-06-25,0
2013-06-26,0
2013-06-27,0
2013-06-28,0
2013-06-29,0
2013-06-30,0
2013-07-01,0
2013-07-02,0
2013-07-03,0
2013-07-04,0
2013-07-05,2
2013-07-06,0
2013-07-07,0
2013-07-08,1
2013-07-09,0
2013-07-10,2
2013-07-11,3
2013-07-12,0
2013-07-13,0
2013-07-14,0
2013-07-15,0
2013-07-16,1
2013-07-17,0
2013-07-18,0
2013-07-19,0
2013-07-20,0
2013-07-21,0
2013-07-22,0
2013-07-23,0
2013-07-24,0
2013-07-25,2
2013-07-26,0
2013-07-27,0
2013-07-28,0
2013-07-29,2
2013-07-30,0
2013-07-31,0
2013-08-01,2
2013-08-02,0
2013-08-03,0
2013-08-04,0
2013-08-05,2
2013-08-06,0
2013-08-07,0
2013-08-08,0
2013-08-09,0
2013-08-10,0
2013-08-11,0
2013-08-12,0
2013-08-13,0
2013-08-14,0
2013-08-15,0
2013-08-16,0
2013-08-17,0
2013-08-18,0
2013-08-19,0
2013-08-20,0
2013-08-21,0
2013-08-22,3
2013-08-23,5
2013-08-24,0
2013-08-25,0
2013-08-26,2
2013-08-27,8
2013-08-28,0
2013-08-29,0
2013-08-30,0
2013-08-31,0
2013-09-01,0
2013-09-02,2
2013-09-03,0
2013-09-04,0
2013-09-05,0
2013-09-06,0
2013-09-07,0
2013-09-08,0
2013-09-09,0
2013-09-10,0
2013-09-11,0
2013-09-12,0
2013-09-13,0
2013-09-14,0
2013-09-15,0
2013-09-16,0
2013-09-17,0
2013-09-18,0
2013-09-19,0
2013-09-20,0
2013-09-21,0
2013-09-22,0
2013-09-23,2
2013-09-24,4
2013-09-25,0
2013-09-26,0
2013-09-27,0
2013-09-28,0
2013-09-29,0
2013-09-30,0
2013-10-01,0
2013-10-02,0
2013-10-03,0
2013-10-04,0
2013-10-05,0
2013-10-06,0
2013-10-07,0
2013-10-08,0
2013-10-09,0
2013-10-10,0
2013-10-11,2
2013-10-12,0
2013-10-13,0
2013-10-14,5
2013-10-15,8
2013-10-16,3
2013-10-17,1
2013-10-18,0
2013-10-19,0
2013-10-20,0
2013-10-21,0
2013-10-22,0
2013-10-23,1
2013-10-24,1
2013-10-25,0
2013-10-26,0
2013-10-27,0
2013-10-28,0
2013-10-29,0
2013-10-30,0
2013-10-31,0
2013-11-01,0
2013-11-02,0
2013-11-03,0
2013-11-04,5
2013-11-05,1
2013-11-06,2
2013-11-07,2
2013-11-08,1
2013-11-09,0
2013-11-10,0
2013-11-11,0
2013-11-12,1
2013-11-13,0
2013-11-14,1
2013-11-15,0
2013-11-16,0
2013-11-17,0
2013-11-18,0
2013-11-19,0
2013-11-20,1
2013-11-21,0
2013-11-22,1
2013-11-23,0
2013-11-24,0
2013-11-25,0
2013-11-26,0
2013-11-27,1
2013-11-28,0
2013-11-29,1
2013-11-30,0
2013-12-01,0
2013-12-02,0
2013-12-03,0
2013-12-04,2
2013-12-05,5
2013-12-06,3
2013-12-07,0
2013-12-08,0
2013-12-09,1
2013-12-10,3
2013-12-11,1
2013-12-12,1
2013-12-13,5
2013-12-14,0
2013-12-15,0
2013-12-16,1
2013-12-17,0
2013-12-18,3
2013-12-19,1
2013-12-20,0
2013-12-21,0
2013-12-22,0
2013-12-23,0
2013-12-24,0
2013-12-25,0
2013-12-26,0
2013-12-27,0
2013-12-28,0
2013-12-29,0
2013-12-30,0
2013-12-31,0
2014-01-01,0
2014-01-02,0
2014-01-03,0
2014-01-04,0
2014-01-05,0
2014-01-06,0
2014-01-07,1
2014-01-08,0
2014-01-09,0
2014-01-10,1
2014-01-11,0
2014-01-12,0
2014-01-13,3
2014-01-14,39
2014-01-15,8
2014-01-16,16
2014-01-17,14
2014-01-18,0
2014-01-19,0
2014-01-20,1
2014-01-21,11
2014-01-22,9
2014-01-23,21
2014-01-24,13
2014-01-25,0
2014-01-26,0
2014-01-27,13
2014-01-28,11
2014-01-29,3
2014-01-30,23
2014-01-31,9
2014-02-01,0
2014-02-02,0
2014-02-03,9
2014-02-04,9
2014-02-05,10
2014-02-06,5
2014-02-07,10
2014-02-08,2
2014-02-09,0
2014-02-10,9
2014-02-11,8
2014-02-12,7
2014-02-13,6
2014-02-14,26
2014-02-15,0
2014-02-16,0
2014-02-17,36
2014-02-18,25
2014-02-19,27
2014-02-20,51
2014-02-21,24
2014-02-22,0
2014-02-23,0
2014-02-24,24
2014-02-25,47
2014-02-26,27
2014-02-27,24
2014-02-28,24
2014-03-01,0
2014-03-02,0
2014-03-03,23
2014-03-04,12
2014-03-05,32
2014-03-06,27
2014-03-07,26
2014-03-08,0
2014-03-09,0
2014-03-10,25
2014-03-11,25
2014-03-12,30
2014-03-13,61
2014-03-14,48
2014-03-15,0
2014-03-16,0
2014-03-17,36
2014-03-18,45
2014-03-19,24
2014-03-20,12
2014-03-21,24
2014-03-22,0
2014-03-23,0
2014-03-24,24
2014-03-25,24
2014-03-26,24
2014-03-27,24
2014-03-28,18
2014-03-29,0
2014-03-30,0
2014-03-31,24
2014-04-01,28
2014-04-02,25
2014-04-03,29
2014-04-04,14
2014-04-05,0
2014-04-06,0
2014-04-07,24
2014-04-08,25
2014-04-09,39
2014-04-10,54
2014-04-11,38
2014-04-12,0
2014-04-13,0
2014-04-14,24
2014-04-15,44
2014-04-16,178
2014-04-17,48
2014-04-18,0
2014-04-19,0
2014-04-20,0
2014-04-21,1
2014-04-22,21
2014-04-23,25
2014-04-24,444
2014-04-25,25
2014-04-26,0
2014-04-27,0
2014-04-28,36
2014-04-29,62
2014-04-30,99
2014-05-01,0
2014-05-02,52
2014-05-03,0
2014-05-04,0
2014-05-05,25
2014-05-06,26
2014-05-07,25
2014-05-08,37
2014-05-09,48
2014-05-10,0
2014-05-11,0
2014-05-12,24
2014-05-13,24
2014-05-14,25
2014-05-15,27
2014-05-16,46
2014-05-17,0
2014-05-18,0
2014-05-19,25
2014-05-20,24
2014-05-21,24
2014-05-22,43
2014-05-23,38
2014-05-24,0
2014-05-25,0
2014-05-26,29
2014-05-27,25
2014-05-28,25
2014-05-29,0
2014-05-30,24
2014-05-31,0
2014-06-01,0
2014-06-02,42
2014-06-03,25
2014-06-04,68
2014-06-05,32
2014-06-06,41
2014-06-07,0
2014-06-08,0
2014-06-09,0
2014-06-10,36
2014-06-11,58
2014-06-12,48
2014-06-13,10
2014-06-14,0
2014-06-15,0
2014-06-16,94
2014-06-17,107
2014-06-18,4
2014-06-19,7
2014-06-20,0
2014-06-21,0
2014-06-22,0
2014-06-23,0
2014-06-24,7
2014-06-25,61
2014-06-26,101
2014-06-27,4
2014-06-28,0
2014-06-29,0
2014-06-30,1
2014-07-01,6
2014-07-02,4
2014-07-03,0
2014-07-04,0
2014-07-05,0
2014-07-06,0
2014-07-07,1
2014-07-08,1
2014-07-09,0
2014-07-10,24
2014-07-11,23
2014-07-12,0
2014-07-13,0
2014-07-14,51
2014-07-15,16
2014-07-16,81
2014-07-17,84
2014-07-18,124
2014-07-19,0
2014-07-20,0
2014-07-21,10
2014-07-22,10
2014-07-23,18
2014-07-24,10
2014-07-25,0
2014-07-26,0
2014-07-27,0
2014-07-28,0
2014-07-29,8
2014-07-30,18
2014-07-31,2
2014-08-01,6
2014-08-02,0
2014-08-03,0
2014-08-04,3
2014-08-05,5
2014-08-06,0
2014-08-07,0
2014-08-08,1
2014-08-09,0
2014-08-10,0
2014-08-11,1
2014-08-12,0
2014-08-13,33
2014-08-14,60
2014-08-15,117
2014-08-16,0
2014-08-17,0
2014-08-18,13
2014-08-19,7
2014-08-20,20
2014-08-21,213
2014-08-22,44
2014-08-23,0
2014-08-24,0
2014-08-25,2
2014-08-26,0
2014-08-27,0
2014-08-28,0
2014-08-29,0
2014-08-30,0
2014-08-31,0
2014-09-01,0
2014-09-02,3
2014-09-03,43
2014-09-04,127
2014-09-05,21
2014-09-06,0
2014-09-07,0
2014-09-08,12
2014-09-09,0
2014-09-10,2
2014-09-11,0
2014-09-12,0
2014-09-13,0
2014-09-14,0
2014-09-15,0
2014-09-16,1
2014-09-17,0
2014-09-18,2
2014-09-19,10
2014-09-20,0
2014-09-21,0
2014-09-22,1
2014-09-23,1
2014-09-24,19
2014-09-25,1
2014-09-26,0
2014-09-27,0
2014-09-28,0
2014-09-29,7
2014-09-30,0
2014-10-01,1
2014-10-02,5
2014-10-03,4
2014-10-04,0
2014-10-05,0
2014-10-06,140
2014-10-07,5
2014-10-08,15
2014-10-09,152
2014-10-10,26
2014-10-11,0
2014-10-12,0
2014-10-13,11
2014-10-14,18
2014-10-15,74
2014-10-16,72
2014-10-17,46
2014-10-18,0
2014-10-19,0
2014-10-20,6
2014-10-21,50
2014-10-22,0
2014-10-23,7
2014-10-24,1
2014-10-25,0
2014-10-26,0
2014-10-27,37
2014-10-28,162
2014-10-29,169
2014-10-30,130
2014-10-31,53
2014-11-01,0
2014-11-02,0
2014-11-03,0
2014-11-04,9
2014-11-05,17
2014-11-06,11
2014-11-07,6
2014-11-08,0
2014-11-09,0
2014-11-10,43
2014-11-11,37
2014-11-12,83
2014-11-13,15
2014-11-14,153
2014-11-15,0
2014-11-16,0
2014-11-17,8
2014-11-18,4
2014-11-19,23
2014-11-20,35
2014-11-21,0
2014-11-22,1
2014-11-23,0
2014-11-24,155
2014-11-25,73
2014-11-26,308
2014-11-27,13
2014-11-28,1
2014-11-29,0
2014-11-30,0
2014-12-01,25
2014-12-02,125
2014-12-03,223
2014-12-04,117
2014-12-05,32
2014-12-06,8
2014-12-07,17
2014-12-08,32
2014-12-09,46
2014-12-10,31
2014-12-11,23
2014-12-12,62
2014-12-13,4
2014-12-14,13
2014-12-15,68
2014-12-16,3
2014-12-17,78
2014-12-18,126
2014-12-19,126
2014-12-20,126
2014-12-21,126
2014-12-22,126
2014-12-23,125
2014-12-24,126
2014-12-25,126
2014-12-26,126
2014-12-27,113
2014-12-28,1
2014-12-29,0
2014-12-30,0
2014-12-31,0
2015-01-01,1
2015-01-02,0
2015-01-03,0
2015-01-04,0
2015-01-05,0
2015-01-06,12
2015-01-07,3
2015-01-08,2
2015-01-09,6
2015-01-10,0
2015-01-11,0
2015-01-12,183
2015-01-13,368
2015-01-14,15
2015-01-15,58
2015-01-16,344
2015-01-17,4
2015-01-18,7
2015-01-19,62
2015-01-20,249
2015-01-21,215
2015-01-22,182
2015-01-23,158
2015-01-24,0
2015-01-25,0
2015-01-26,0
2015-01-27,5
2015-01-28,3
2015-01-29,475
2015-01-30,13
2015-01-31,0
2015-02-01,616
2015-02-02,318
2015-02-03,166
2015-02-04,478
2015-02-05,273
2015-02-06,430
2015-02-07,19
2015-02-08,12
2015-02-09,218
2015-02-10,168
2015-02-11,180
2015-02-12,13
2015-02-13,75
2015-02-14,14
2015-02-15,162
2015-02-16,23
2015-02-17,351
2015-02-18,181
2015-02-19,26
2015-02-20,19
2015-02-21,13
2015-02-22,6
2015-02-23,167
2015-02-24,320
2015-02-25,9
2015-02-26,320
2015-02-27,474
2015-02-28,4
2015-03-01,9
2015-03-02,472
2015-03-03,476
2015-03-04,927
2015-03-05,9
2015-03-06,0
2015-03-07,0
2015-03-08,0
2015-03-09,13
2015-03-10,329
2015-03-11,11
2015-03-12,13
2015-03-13,25
2015-03-14,21
2015-03-15,25
2015-03-16,9
2015-03-17,174
2015-03-18,27
2015-03-19,283
2015-03-20,186
2015-03-21,106
2015-03-22,10
2015-03-23,328
2015-03-24,13
2015-03-25,13
2015-03-26,12
2015-03-27,347
2015-03-28,14
2015-03-29,0
2015-03-30,16
2015-03-31,201
2015-04-01,18
2015-04-02,3
2015-04-03,6
2015-04-04,0
2015-04-05,3
2015-04-06,0
2015-04-07,0
2015-04-08,0
2015-04-09,0
2015-04-10,1
2015-04-11,0
2015-04-12,0
2015-04-13,4
2015-04-14,4
2015-04-15,0
2015-04-16,0
2015-04-17,0
2015-04-18,0
2015-04-19,0
2015-04-20,0
2015-04-21,0
2015-04-22,0
2015-04-23,8
2015-04-24,4
2015-04-25,3
2015-04-26,0
2015-04-27,1
2015-04-28,3
2015-04-29,0
2015-04-30,0
2015-05-01,0
2015-05-02,0
2015-05-03,0
2015-05-04,0
2015-05-05,0
2015-05-06,4
2015-05-07,0
2015-05-08,0
2015-05-09,0
2015-05-10,0
2015-05-11,0
2015-05-12,0
2015-05-13,0
2015-05-14,4
2015-05-15,0
2015-05-16,4
2015-05-17,0
2015-05-18,0
2015-05-19,1
2015-05-20,2
2015-05-21,4
2015-05-22,12
2015-05-23,0
2015-05-24,0
2015-05-25,0
2015-05-26,1
2015-05-27,6
2015-05-28,0
2015-05-29,0
2015-05-30,0
2015-05-31,0
2015-06-01,1
2015-06-02,0
2015-06-03,0
2015-06-04,0
2015-06-05,0
2015-06-06,0
2015-06-07,0
2015-06-08,2
2015-06-09,0
2015-06-10,0
2015-06-11,7
2015-06-12,2
2015-06-13,0
2015-06-14,0
2015-06-15,0
2015-06-16,1
2015-06-17,0
2015-06-18,6
2015-06-19,0
2015-06-20,0
2015-06-21,0
2015-06-22,0
2015-06-23,0
2015-06-24,0
2015-06-25,0
2015-06-26,0
2015-06-27,3
2015-06-28,3
2015-06-29,3
2015-06-30,0
2015-07-01,0
2015-07-02,0
2015-07-03,0
2015-07-04,0
2015-07-05,0
2015-07-06,0
2015-07-07,0
2015-07-08,0
2015-07-09,4
2015-07-10,0
2015-07-11,1
2015-07-12,0
2015-07-13,0
2015-07-14,7
2015-07-15,0
2015-07-16,0
2015-07-17,0
2015-07-18,0
2015-07-19,0
2015-07-20,0
2015-07-21,0
2015-07-22,0
2015-07-23,0
2015-07-24,0
2015-07-25,0
2015-07-26,0
2015-07-27,1
2015-07-28,3
2015-07-29,0
2015-07-30,1
2015-07-31,0
2015-08-01,0
2015-08-02,0
2015-08-03,0
2015-08-04,0
2015-08-05,0
2015-08-06,3
2015-08-07,0
2015-08-08,0
2015-08-09,0
2015-08-10,0
2015-08-11,0
2015-08-12,3
2015-08-13,0
2015-08-14,3
2015-08-15,4
2015-08-16,0
2015-08-17,13
2015-08-18,0
2015-08-19,7
2015-08-20,0
2015-08-21,1
2015-08-22,0
2015-08-23,0
2015-08-24,0
2015-08-25,0
2015-08-26,3
2015-08-27,0
2015-08-28,0
2015-08-29,0
2015-08-30,0
2015-08-31,1
2015-09-01,5
2015-09-02,7
2015-09-03,20
2015-09-04,10
2015-09-05,0
2015-09-06,0
2015-09-07,17
2015-09-08,2
2015-09-09,0
2015-09-10,11
2015-09-11,0
2015-09-12,4
2015-09-13,0
2015-09-14,15
2015-09-15,1
2015-09-16,0
2015-09-17,6
2015-09-18,1
2015-09-19,0
2015-09-20,9
2015-09-21,5
2015-09-22,1
2015-09-23,7
2015-09-24,0
2015-09-25,2
2015-09-26,2
2015-09-27,2
2015-09-28,3
2015-09-29,5
2015-09-30,1
2015-10-01,6
2015-10-02,2
2015-10-03,6
2015-10-04,5
2015-10-05,7
2015-10-06,5
2015-10-07,2
2015-10-08,1
2015-10-09,4
2015-10-10,3
2015-10-11,1
2015-10-12,5
2015-10-13,3
2015-10-14,1
2015-10-15,0
2015-10-16,3
2015-10-17,1
2015-10-18,0
2015-10-19,0
2015-10-20,1
2015-10-21,1
2015-10-22,0
2015-10-23,2
2015-10-24,3
2015-10-25,3
2015-10-26,5
2015-10-27,5
2015-10-28,5
2015-10-29,0
2015-10-30,0
2015-10-31,0
2015-11-01,8
2015-11-02,3
2015-11-03,14
2015-11-04,0
2015-11-05,0
2015-11-06,0
2015-11-07,0
2015-11-08,0
2015-11-09,2
2015-11-10,0
2015-11-11,3
2015-11-12,8
2015-11-13,0
2015-11-14,0
2015-11-15,0
2015-11-16,0
2015-11-17,3
2015-11-18,0
2015-11-19,0
2015-11-20,1
2015-11-21,1
2015-11-22,0
2015-11-23,3
2015-11-24,0
2015-11-25,0
2015-11-26,0
2015-11-27,7
2015-11-28,1
2015-11-29,2
2015-11-30,0
2015-12-01,4
2015-12-02,0
2015-12-03,4
2015-12-04,3
2015-12-05,10
2015-12-06,2
2015-12-07,2
2015-12-08,5
2015-12-09,6
2015-12-10,3
2015-12-11,3
2015-12-12,2
2015-12-13,8
2015-12-14,0
2015-12-15,0
2015-12-16,0
2015-12-17,0
2015-12-18,0
2015-12-19,0
2015-12-20,0
2015-12-21,0
2015-12-22,0
2015-12-23,0
2015-12-24,0
2015-12-25,0
2015-12-26,0
2015-12-27,0
2015-12-28,0
2015-12-29,0
2015-12-30,0
2015-12-31,0
2016-01-01,0
2016-01-02,0
2016-01-03,0
2016-01-04,0
2016-01-05,0
2016-01-06,0
2016-01-07,0
2016-01-08,0
2016-01-09,0
2016-01-10,0
2016-01-11,0
2016-01-12,0
2016-01-13,0
2016-01-14,0
2016-01-15,0
2016-01-16,0
2016-01-17,0
2016-01-18,0
2016-01-19,0
2016-01-20,0
2016-01-21,0
2016-01-22,0
2016-01-23,0
2016-01-24,0
2016-01-25,1
2016-01-26,0
2016-01-27,0
2016-01-28,0
2016-01-29,0
2016-01-30,0
2016-01-31,0
2016-02-01,0
2016-02-02,0
2016-02-03,0
2016-02-04,0
2016-02-05,0
2016-02-06,0
2016-02-07,0
2016-02-08,0
2016-02-09,0
2016-02-10,1
2016-02-11,0
2016-02-12,0
2016-02-13,0
2016-02-14,0
2016-02-15,0
2016-02-16,1
2016-02-17,0
2016-02-18,0
2016-02-19,0
2016-02-20,0
2016-02-21,0
2016-02-22,0
2016-02-23,2
2016-02-24,7
2016-02-25,9
2016-02-26,0
2016-02-27,0
2016-02-28,0
2016-02-29,2
2016-03-01,2
2016-03-02,0
2016-03-03,3
2016-03-04,2
2016-03-05,0
2016-03-06,0
2016-03-07,5
2016-03-08,3
2016-03-09,0
2016-03-10,3
2016-03-11,4
2016-03-12,5
2016-03-13,7
2016-03-14,0
2016-03-15,0
2016-03-16,0
2016-03-17,0
2016-03-18,0
2016-03-19,3
2016-03-20,0
2016-03-21,0
2016-03-22,0
2016-03-23,0
2016-03-24,0
2016-03-25,0
2016-03-26,0
2016-03-27,0
2016-03-28,0
2016-03-29,0
2016-03-30,1
2016-03-31,0
2016-04-01,0
2016-04-02,0
2016-04-03,0
2016-04-04,0
2016-04-05,1
2016-04-06,0
2016-04-07,3
2016-04-08,0
2016-04-09,0
2016-04-10,0
2016-04-11,0
2016-04-12,0
2016-04-13,3
2016-04-14,0
2016-04-15,0
2016-04-16,4
2016-04-17,0
2016-04-18,0
2016-04-19,4
2016-04-20,5
2016-04-21,1
2016-04-22,0
2016-04-23,0
2016-04-24,0
2016-04-25,1
2016-04-26,1
2016-04-27,0
2016-04-28,0
2016-04-29,0
2016-04-30,0
2016-05-01,0
2016-05-02,0
2016-05-03,0
2016-05-04,0
2016-05-05,0
2016-05-06,0
2016-05-07,0
2016-05-08,0
2016-05-09,4
2016-05-10,1
2016-05-11,1
2016-05-12,3
2016-05-13,0
2016-05-14,2
2016-05-15,2
2016-05-16,1
2016-05-17,1
2016-05-18,2
2016-05-19,0
2016-05-20,1
2016-05-21,0
2016-05-22,0
2016-05-23,0
2016-05-24,1
2016-05-25,0
2016-05-26,0
2016-05-27,1
2016-05-28,3
2016-05-29,1
2016-05-30,5
2016-05-31,2
2016-06-01,1
2016-06-02,6
2016-06-03,8
2016-06-04,2
2016-06-05,6
2016-06-06,17
2016-06-07,0
2016-06-08,4
2016-06-09,3
2016-06-10,1
2016-06-11,0
2016-06-12,1
2016-06-13,1
2016-06-14,0
2016-06-15,1
2016-06-16,0
2016-06-17,2
2016-06-18,4
2016-06-19,4
2016-06-20,1
2016-06-21,1
2016-06-22,0
2016-06-23,0
2016-06-24,0
2016-06-25,1
2016-06-26,1
2016-06-27,1
2016-06-28,0
2016-06-29,3
2016-06-30,6
2016-07-01,0
2016-07-02,5
2016-07-03,5
2016-07-04,3
2016-07-05,2
2016-07-06,3
2016-07-07,2
2016-07-08,4
2016-07-09,2
2016-07-10,2
2016-07-11,0
2016-07-12,11
2016-07-13,1
2016-07-14,1
2016-07-15,4
2016-07-16,3
2016-07-17,2
2016-07-18,6
2016-07-19,0
2016-07-20,2
2016-07-21,0
2016-07-22,3
2016-07-23,3
2016-07-24,3
2016-07-25,4
2016-07-26,0
2016-07-27,0
2016-07-28,0
2016-07-29,1
2016-07-30,0
2016-07-31,0
2016-08-01,0
2016-08-02,6
2016-08-03,1
2016-08-04,2
2016-08-05,0
2016-08-06,3
2016-08-07,0
2016-08-08,4
2016-08-09,8
2016-08-10,3
2016-08-11,852
2016-08-12,0
2016-08-13,1
2016-08-14,2
2016-08-15,0
2016-08-16,3
2016-08-17,2
2016-08-18,0
2016-08-19,0
2016-08-20,0
2016-08-21,0
2016-08-22,0
2016-08-23,0
2016-08-24,0
2016-08-25,0
2016-08-26,6
2016-08-27,8
2016-08-28,3
2016-08-29,5
2016-08-30,0
2016-08-31,5
2016-09-01,1
2016-09-02,4
2016-09-03,2
2016-09-04,1
2016-09-05,0
2016-09-06,4
2016-09-07,0
2016-09-08,1
2016-09-09,1
2016-09-10,0
2016-09-11,0
2016-09-12,6
2016-09-13,10
2016-09-14,16
2016-09-15,21
2016-09-16,4
2016-09-17,0
2016-09-18,0
2016-09-19,0
2016-09-20,0
2016-09-21,0
2016-09-22,0
2016-09-23,0
2016-09-24,0
2016-09-25,0
2016-09-26,2
2016-09-27,3
2016-09-28,11
2016-09-29,0
2016-09-30,1
2016-10-01,3
2016-10-02,3
2016-10-03,0
2016-10-04,0
2016-10-05,0
2016-10-06,0
2016-10-07,0
2016-10-08,0
2016-10-09,1
2016-10-10,4
2016-10-11,2
2016-10-12,2
2016-10-13,1
2016-10-14,1
2016-10-15,2
2016-10-16,3
2016-10-17,1
2016-10-18,2
2016-10-19,3
2016-10-20,2
2016-10-21,1
2016-10-22,1
2016-10-23,3
2016-10-24,3
2016-10-25,1
2016-10-26,1
2016-10-27,0
2016-10-28,7
2016-10-29,1
2016-10-30,0
2016-10-31,16
2016-11-01,21
2016-11-02,1
2016-11-03,0
2016-11-04,11
2016-11-05,181
2016-11-06,0
2016-11-07,0
2016-11-08,0
2016-11-09,308
2016-11-10,0
2016-11-11,0
2016-11-12,1
2016-11-13,2
2016-11-14,1
2016-11-15,1
2016-11-16,0
2016-11-17,0
2016-11-18,0
2016-11-19,8
2016-11-20,3
2016-11-21,4
2016-11-22,3
2016-11-23,2
2016-11-24,2
2016-11-25,2
2016-11-26,0
2016-11-27,7
2016-11-28,7
2016-11-29,2
2016-11-30,2
2016-12-01,2
2016-12-02,11
2016-12-03,10
2016-12-04,0
2016-12-05,320
2016-12-06,28
2016-12-07,30
2016-12-08,32
2016-12-09,6
2016-12-10,14
2016-12-11,15
2016-12-12,14
2016-12-13,24
2016-12-14,8
2016-12-15,0
2016-12-16,0
2016-12-17,0
2016-12-18,0
2016-12-19,0
2016-12-20,0
2016-12-21,0
2016-12-22,0
2016-12-23,0
2016-12-24,0
2016-12-25,0
2016-12-26,0
2016-12-27,0
2016-12-28,0
2016-12-29,0
2016-12-30,0
2016-12-31,0
2017-01-01,0
2017-01-02,0
2017-01-03,4
2017-01-04,118
2017-01-05,53
2017-01-06,0
2017-01-07,0
2017-01-08,0
2017-01-09,0
2017-01-10,0
2017-01-11,0
2017-01-12,0
2017-01-13,0
2017-01-14,0
2017-01-15,0
2017-01-16,0
2017-01-17,0
2017-01-18,0
2017-01-19,0
2017-01-20,0
2017-01-21,0
2017-01-22,0
2017-01-23,0
2017-01-24,0
2017-01-25,0
2017-01-26,0
2017-01-27,0
2017-01-28,0
2017-01-29,0
2017-01-30,0
2017-01-31,2
2017-02-01,0
2017-02-02,0
2017-02-03,0
2017-02-04,0
2017-02-05,0
2017-02-06,0
2017-02-07,0
2017-02-08,0
2017-02-09,34
2017-02-10,1
2017-02-11,0
2017-02-12,0
2017-02-13,0
2017-02-14,1
2017-02-15,0
2017-02-16,0
2017-02-17,0
2017-02-18,0
2017-02-19,0
2017-02-20,0
2017-02-21,0
2017-02-22,0
2017-02-23,0
2017-02-24,0
2017-02-25,0
2017-02-26,0
2017-02-27,1
2017-02-28,0
2017-03-01,0
2017-03-02,0
2017-03-03,0
2017-03-04,0
2017-03-05,0
2017-03-06,0
2017-03-07,1
2017-03-08,0
2017-03-09,0
2017-03-10,0
2017-03-11,0
2017-03-12,0
2017-03-13,0
2017-03-14,0
2017-03-15,0
2017-03-16,0
2017-03-17,0
2017-03-18,0
2017-03-19,0
2017-03-20,8
2017-03-21,3
2017-03-22,0
2017-03-23,10
2017-03-24,46
2017-03-25,0
2017-03-26,0
2017-03-27,2
2017-03-28,0
2017-03-29,1
2017-03-30,8
2017-03-31,22
2017-04-01,0
2017-04-02,0
2017-04-03,10
2017-04-04,68
2017-04-05,105
2017-04-06,8
2017-04-07,0
2017-04-08,0
2017-04-09,0
2017-04-10,5
2017-04-11,1
2017-04-12,3
2017-04-13,0
2017-04-14,0
2017-04-15,0
2017-04-16,0
2017-04-17,0
2017-04-18,0
2017-04-19,2
2017-04-20,6
2017-04-21,4
2017-04-22,6
2017-04-23,6
2017-04-24,2
2017-04-25,7
2017-04-26,24
2017-04-27,1
2017-04-28,2
2017-04-29,0
2017-04-30,0
2017-05-01,0
2017-05-02,0
2017-05-03,3
2017-05-04,0
2017-05-05,0
2017-05-06,0
2017-05-07,0
2017-05-08,0
2017-05-09,0
2017-05-10,3
2017-05-11,0
2017-05-12,0
2017-05-13,0
2017-05-14,0
2017-05-15,3
2017-05-16,0
2017-05-17,0
2017-05-18,0
2017-05-19,0
2017-05-20,0
2017-05-21,0
2017-05-22,0
2017-05-23,5
2017-05-24,0
2017-05-25,0
2017-05-26,0
2017-05-27,0
2017-05-28,0
2017-05-29,0
2017-05-30,1
2017-05-31,7
2017-06-01,8
2017-06-02,2
2017-06-03,0
2017-06-04,0
2017-06-05,0
2017-06-06,0
2017-06-07,0
2017-06-08,1
2017-06-09,0
2017-06-10,0
2017-06-11,0
2017-06-12,4
2017-06-13,4
2017-06-14,3
2017-06-15,1
2017-06-16,4
2017-06-17,1
2017-06-18,1
2017-06-19,3
2017-06-20,2
2017-06-21,0
2017-06-22,3
2017-06-23,3
2017-06-24,0
2017-06-25,2
2017-06-26,3
2017-06-27,3
2017-06-28,2
2017-06-29,5
2017-06-30,0
2017-07-01,0
2017-07-02,0
2017-07-03,0
2017-07-04,3
2017-07-05,3
2017-07-06,4
2017-07-07,470
2017-07-08,0
2017-07-09,0
2017-07-10,0
2017-07-11,0
2017-07-12,3
2017-07-13,0
2017-07-14,0
2017-07-15,4
2017-07-16,0
2017-07-17,0
2017-07-18,2
2017-07-19,1
2017-07-20,1
2017-07-21,1
2017-07-22,0
2017-07-23,0
2017-07-24,3
2017-07-25,0
2017-07-26,0
2017-07-27,0
2017-07-28,0
2017-07-29,0
2017-07-30,3
2017-07-31,1
2017-08-01,0
2017-08-02,3
2017-08-03,0
2017-08-04,3
2017-08-05,1
2017-08-06,1
2017-08-07,3
2017-08-08,1
2017-08-09,3
2017-08-10,2
2017-08-11,0
2017-08-12,6
2017-08-13,0
2017-08-14,1
2017-08-15,0
2017-08-16,11
2017-08-17,1
2017-08-18,1
2017-08-19,0
2017-08-20,0
2017-08-21,0
2017-08-22,0
2017-08-23,0
2017-08-24,0
2017-08-25,9
2017-08-26,0
2017-08-27,0
2017-08-28,0
2017-08-29,0
2017-08-30,0
2017-08-31,0
2017-09-01,0
2017-09-02,1
2017-09-03,1
2017-09-04,0
2017-09-05,0
2017-09-06,0
2017-09-07,2
2017-09-08,0
2017-09-09,1
2017-09-10,1
2017-09-11,0
2017-09-12,2
2017-09-13,0
2017-09-14,0
2017-09-15,1
2017-09-16,1
2017-09-17,0
2017-09-18,10
2017-09-19,3
2017-09-20,1
2017-09-21,0
2017-09-22,0
2017-09-23,0
2017-09-24,1
2017-09-25,3
2017-09-26,4
2017-09-27,2
2017-09-28,5
2017-09-29,3
2017-09-30,0
2017-10-01,2
2017-10-02,1
2017-10-03,1
2017-10-04,1
2017-10-05,0
2017-10-06,0
2017-10-07,7
2017-10-08,0
2017-10-09,5
2017-10-10,1
2017-10-11,3
2017-10-12,1
2017-10-13,1
2017-10-14,0
2017-10-15,2
2017-10-16,2
2017-10-17,2
2017-10-18,1
2017-10-19,4
2017-10-20,3
2017-10-21,1
2017-10-22,2
2017-10-23,1
2017-10-24,3
2017-10-25,3
2017-10-26,0
2017-10-27,1
2017-10-28,0
2017-10-29,1
2017-10-30,2
2017-10-31,3
2017-11-01,0
2017-11-02,2
2017-11-03,0
2017-11-04,0
2017-11-05,1
2017-11-06,1
2017-11-07,0
2017-11-08,0
2017-11-09,1
2017-11-10,0
2017-11-11,0
2017-11-12,0
2017-11-13,0
2017-11-14,2
2017-11-15,3
2017-11-16,0
2017-11-17,0
2017-11-18,0
2017-11-19,0
2017-11-20,0
2017-11-21,0
2017-11-22,1
2017-11-23,1
2017-11-24,0
2017-11-25,0
2017-11-26,0
2017-11-27,1
2017-11-28,1
2017-11-29,0
2017-11-30,0
2017-12-01,0
2017-12-02,0
2017-12-03,0
2017-12-04,156
2017-12-05,1
2017-12-06,3
2017-12-07,2
2017-12-08,1
2017-12-09,0
2017-12-10,0
2017-12-11,0
2017-12-12,0
2017-12-13,0
2017-12-14,0
2017-12-15,0
2017-12-16,0
2017-12-17,0
2017-12-18,0
2017-12-19,0
2017-12-20,0
2017-12-21,1
2017-12-22,0
2017-12-23,0
2017-12-24,0
2017-12-25,0
2017-12-26,0
2017-12-27,0
2017-12-28,0
2017-12-29,0
2017-12-30,0
2017-12-31,0
2018-01-01,0
2018-01-02,0
2018-01-03,0
2018-01-04,0
2018-01-05,0
2018-01-06,0
2018-01-07,0
2018-01-08,0
2018-01-09,1
2018-01-10,1
2018-01-11,0
2018-01-12,1
2018-01-13,0
2018-01-14,0
2018-01-15,0
2018-01-16,0
2018-01-17,1
2018-01-18,1
2018-01-19,0
2018-01-20,0
2018-01-21,0
2018-01-22,0
2018-01-23,0
2018-01-24,0
2018-01-25,5
2018-01-26,0
2018-01-27,0
2018-01-28,0
2018-01-29,0
2018-01-30,0
2018-01-31,0
2018-02-01,0
2018-02-02,0
2018-02-03,0
2018-02-04,0
2018-02-05,0
2018-02-06,0
2018-02-07,0
2018-02-08,0
2018-02-09,0
2018-02-10,0
2018-02-11,0
2018-02-12,0
2018-02-13,3
2018-02-14,11
2018-02-15,2
2018-02-16,2
2018-02-17,0
2018-02-18,0
2018-02-19,0
2018-02-20,7
2018-02-21,0
2018-02-22,0
2018-02-23,0
2018-02-24,0
2018-02-25,0
2018-02-26,0
2018-02-27,10
2018-02-28,7
2018-03-01,0
2018-03-02,0
2018-03-03,0
2018-03-04,1
2018-03-05,1
2018-03-06,2
2018-03-07,2
2018-03-08,0
2018-03-09,154
2018-03-10,1
2018-03-11,0
2018-03-12,3
2018-03-13,156
2018-03-14,6
2018-03-15,14
2018-03-16,5
2018-03-17,0
2018-03-18,0
2018-03-19,10
2018-03-20,4
2018-03-21,2
2018-03-22,9
2018-03-23,3
2018-03-24,0
2018-03-25,0
2018-03-26,0
2018-03-27,0
2018-03-28,0
2018-03-29,0
2018-03-30,0
2018-03-31,0
2018-04-01,0
2018-04-02,0
2018-04-03,0
2018-04-04,0
2018-04-05,1
2018-04-06,0
2018-04-07,0
2018-04-08,0
2018-04-09,0
2018-04-10,3
2018-04-11,0
2018-04-12,0
2018-04-13,0
2018-04-14,0
2018-04-15,0
2018-04-16,0
2018-04-17,0
2018-04-18,0
2018-04-19,1
2018-04-20,1
2018-04-21,0
2018-04-22,1
2018-04-23,2
2018-04-24,3
2018-04-25,3
2018-04-26,3
2018-04-27,4
2018-04-28,1
2018-04-29,4
2018-04-30,3
2018-05-01,6
2018-05-02,2
2018-05-03,4
2018-05-04,6
2018-05-05,3
2018-05-06,5
2018-05-07,4
2018-05-08,2
2018-05-09,10
2018-05-10,5
2018-05-11,7
2018-05-12,8
2018-05-13,4
2018-05-14,8
2018-05-15,2
2018-05-16,4
2018-05-17,3
2018-05-18,6
2018-05-19,6
2018-05-20,3
2018-05-21,5
2018-05-22,6
2018-05-23,6
2018-05-24,3
2018-05-25,4
2018-05-26,2
2018-05-27,2
2018-05-28,1
2018-05-29,8
2018-05-30,2
2018-05-31,6
2018-06-01,11
2018-06-02,4
2018-06-03,0
2018-06-04,2
2018-06-05,3
2018-06-06,9
2018-06-07,6
2018-06-08,0
2018-06-09,9
2018-06-10,6
2018-06-11,7
2018-06-12,2
2018-06-13,0
2018-06-14,0
2018-06-15,17
2018-06-16,0
2018-06-17,0
2018-06-18,5
2018-06-19,3
2018-06-20,5
2018-06-21,1
2018-06-22,0
2018-06-23,0
2018-06-24,0
2018-06-25,0
2018-06-26,1
2018-06-27,2
2018-06-28,5
2018-06-29,3
2018-06-30,0
2018-07-01,0
2018-07-02,0
2018-07-03,1
2018-07-04,6
2018-07-05,0
2018-07-06,0
2018-07-07,0
2018-07-08,5
2018-07-09,4
2018-07-10,6
2018-07-11,3
2018-07-12,5
2018-07-13,5
2018-07-14,1
2018-07-15,6
2018-07-16,5
2018-07-17,1
2018-07-18,9
2018-07-19,5
2018-07-20,3
2018-07-21,8
2018-07-22,7
2018-07-23,2
2018-07-24,0
2018-07-25,0
2018-07-26,0
2018-07-27,0
2018-07-28,0
2018-07-29,0
2018-07-30,0
2018-07-31,0
2018-08-01,4
2018-08-02,7
2018-08-03,3
2018-08-04,3
2018-08-05,3
2018-08-06,3
2018-08-07,1
2018-08-08,4
2018-08-09,8
2018-08-10,3
2018-08-11,2
2018-08-12,11
2018-08-13,7
2018-08-14,2
2018-08-15,4
2018-08-16,5
2018-08-17,9
2018-08-18,8
2018-08-19,6
2018-08-20,3
2018-08-21,11
2018-08-22,1
2018-08-23,3
2018-08-24,5
2018-08-25,9
2018-08-26,5
2018-08-27,10
2018-08-28,2
2018-08-29,7
2018-08-30,7
2018-08-31,6
2018-09-01,4
2018-09-02,4
2018-09-03,5
2018-09-04,5
2018-09-05,7
2018-09-06,4
2018-09-07,4
2018-09-08,5
2018-09-09,3
2018-09-10,7
2018-09-11,3
2018-09-12,0
2018-09-13,0
2018-09-14,0
2018-09-15,0
2018-09-16,0
2018-09-17,2
2018-09-18,0
2018-09-19,1
2018-09-20,1
2018-09-21,4
2018-09-22,0
2018-09-23,0
2018-09-24,4
2018-09-25,3
2018-09-26,3
2018-09-27,6
2018-09-28,22
2018-09-29,29
2018-09-30,28
2018-10-01,20
2018-10-02,25
2018-10-03,31
2018-10-04,26
2018-10-05,29
2018-10-06,24
2018-10-07,34
2018-10-08,29
2018-10-09,21
2018-10-10,13
2018-10-11,33
2018-10-12,26
2018-10-13,28
2018-10-14,29
2018-10-15,29
2018-10-16,34
2018-10-17,94
2018-10-18,95
2018-10-19,5
2018-10-20,3
2018-10-21,3
2018-10-22,3
2018-10-23,5
2018-10-24,0
2018-10-25,3
2018-10-26,2
2018-10-27,1
2018-10-28,0
2018-10-29,1
2018-10-30,0
2018-10-31,10
2018-11-01,0
2018-11-02,3
2018-11-03,0
2018-11-04,0
2018-11-05,0
2018-11-06,0
2018-11-07,0
2018-11-08,1
2018-11-09,0
2018-11-10,3
2018-11-11,5
2018-11-12,2
2018-11-13,6
2018-11-14,2
2018-11-15,3
2018-11-16,5
2018-11-17,4
2018-11-18,4
2018-11-19,4
2018-11-20,3
2018-11-21,0
2018-11-22,3
2018-11-23,7
2018-11-24,6
2018-11-25,5
2018-11-26,3
2018-11-27,5
2018-11-28,11
2018-11-29,1
2018-11-30,7
2018-12-01,6
2018-12-02,4
2018-12-03,32
2018-12-04,0
2018-12-05,0
2018-12-06,16
2018-12-07,325
2018-12-08,951
2018-12-09,169
2018-12-10,788
2018-12-11,66
2018-12-12,119
2018-12-13,204
2018-12-14,8
2018-12-15,0
2018-12-16,0
2018-12-17,0
2018-12-18,0
2018-12-19,0
2018-12-20,0
2018-12-21,0
2018-12-22,0
2018-12-23,0
2018-12-24,0
2018-12-25,0
2018-12-26,0
2018-12-27,0
2018-12-28,0
2018-12-29,0
2018-12-30,0
2018-12-31,0
